<?xml version="1.0" encoding="utf-8"?>
<!-- Generator: Adobe Illustrator 21.1.0, SVG Export Plug-In . SVG Version: 6.00 Build 0)  -->
<svg version="1.1" id="Capa_1" xmlns="http://www.w3.org/2000/svg" xmlns:xlink="http://www.w3.org/1999/xlink" x="0px" y="0px"
	 viewBox="0 0 1014.6 322.9" style="enable-background:new 0 0 1014.6 322.9;" xml:space="preserve">
<style type="text/css">
	.st0{fill:#FFFFFF;}
	.st1{fill-rule:evenodd;clip-rule:evenodd;fill:#FFFFFF;}
</style>
<g>
	<g>
		<path class="st0" d="M51,322.4l-7.3-24.7l-10.9,22.9c-0.4,0.7-0.9,1.3-1.4,1.7c-0.5,0.4-1.2,0.6-2,0.6c-1.6,0-2.7-0.8-3.4-2.3
			l-10.8-22.9l-7.3,24.7H1.3l9.9-33.1c0.5-1.7,1.6-2.5,3.3-2.5c0.7,0,1.4,0.2,2,0.5c0.6,0.4,1.1,0.9,1.4,1.5l11.8,24.9l11.8-24.9
			c0.6-1.4,1.7-2.1,3.2-2.1c1.6,0,2.7,0.8,3.2,2.5l9.8,33.1H51z"/>
		<path class="st0" d="M60.2,322.4v-35.2h34.2v6.1H66.8v22.9h27.6v6.1H60.2z M71.7,307.1v-5.2H93v5.2H71.7z"/>
		<path class="st0" d="M104.5,296.7v25.7h-6.4v-31.9c0-1.1,0.3-2,0.9-2.7c0.6-0.7,1.5-1,2.5-1c0.5,0,1,0.1,1.4,0.3
			c0.5,0.2,0.9,0.5,1.4,1l27.1,24.6v-25.7h6.4v32.2c0,1.2-0.3,2.1-0.9,2.7c-0.6,0.6-1.4,1-2.4,1c-1.1,0-2.1-0.4-3.1-1.3L104.5,296.7
			z"/>
		<path class="st0" d="M154.6,322.4v-29h-14.6v-6.1h35.8v6.1h-14.6v29H154.6z"/>
		<path class="st0" d="M195.9,322.4c-2.7,0-5.1-0.5-7.4-1.4c-2.3-0.9-4.2-2.2-5.9-3.8c-1.7-1.6-3-3.5-3.9-5.7
			c-0.9-2.2-1.4-4.6-1.4-7.1c0-2.6,0.5-4.9,1.4-7.1c0.9-2.1,2.2-3.9,3.9-5.4c1.7-1.5,3.6-2.7,5.9-3.5c2.3-0.8,4.7-1.2,7.4-1.2h9.3
			c2.8,0,5.3,0.4,7.6,1.3c2.3,0.8,4.3,2,5.9,3.5c1.7,1.5,2.9,3.3,3.8,5.4c0.9,2.1,1.4,4.4,1.4,7c0,2.5-0.5,4.9-1.4,7.1
			c-0.9,2.2-2.2,4.1-3.9,5.7c-1.7,1.6-3.6,2.9-5.9,3.8c-2.3,0.9-4.8,1.4-7.5,1.4H195.9z M205.2,316.2c1.8,0,3.4-0.3,4.9-0.9
			c1.5-0.6,2.8-1.4,3.8-2.4c1.1-1,1.9-2.2,2.5-3.7c0.6-1.4,0.9-3,0.9-4.6c0-1.6-0.3-3.2-0.9-4.6c-0.6-1.4-1.4-2.6-2.5-3.6
			c-1.1-1-2.3-1.8-3.8-2.3c-1.5-0.6-3.1-0.8-4.9-0.8h-9.3c-1.7,0-3.3,0.3-4.8,0.8c-1.5,0.6-2.7,1.3-3.8,2.3c-1.1,1-1.9,2.2-2.5,3.6
			c-0.6,1.4-0.9,2.9-0.9,4.6c0,1.6,0.3,3.2,0.9,4.6c0.6,1.4,1.4,2.6,2.5,3.7s2.3,1.8,3.8,2.4c1.5,0.6,3,0.9,4.8,0.9H205.2z"/>
		<path class="st0" d="M263,322.4l-9.7-9.8H239v-5.4h16c2.4,0,4.3-0.6,5.5-1.8c1.2-1.2,1.8-3,1.8-5.2c0-2.3-0.6-4-1.9-5.1
			s-3.1-1.7-5.4-1.7h-20.9v29h-6.6v-35.2H255c2.2,0,4.1,0.3,5.9,0.9c1.7,0.6,3.2,1.5,4.4,2.6c1.2,1.1,2.1,2.5,2.7,4
			c0.6,1.6,0.9,3.4,0.9,5.3c0,2.9-0.7,5.4-2.1,7.4c-1.4,2-3.3,3.4-5.8,4.3l11.5,10.7H263z"/>
		<path class="st0" d="M274.1,322.4v-35.2h34.2v6.1h-27.6v22.9h27.6v6.1H274.1z M285.6,307.1v-5.2h21.3v5.2H285.6z"/>
		<path class="st0" d="M312.1,322.4v-6.1h28.7c1.8,0,3.2-0.4,4.1-1.3c1-0.8,1.5-2,1.5-3.3c0-1.5-0.5-2.7-1.5-3.4
			c-1-0.8-2.3-1.1-4.1-1.1h-17.6c-1.8,0-3.4-0.3-4.9-0.8c-1.5-0.5-2.7-1.2-3.7-2.1c-1-0.9-1.8-1.9-2.3-3.2c-0.5-1.2-0.8-2.6-0.8-4
			c0-1.4,0.3-2.7,0.8-3.9c0.5-1.2,1.3-2.2,2.3-3.1c1-0.9,2.2-1.6,3.7-2.1c1.5-0.5,3.2-0.7,5.1-0.7h27.5v6.1h-27.5
			c-1.5,0-2.7,0.4-3.6,1.1c-0.8,0.8-1.3,1.8-1.3,3.2c0,1.4,0.4,2.4,1.3,3.1c0.9,0.7,2,1.1,3.5,1.1h17.6c3.9,0,6.9,0.8,8.9,2.5
			c2,1.7,3,4.2,3,7.6c0,1.5-0.2,2.9-0.7,4.1c-0.5,1.3-1.2,2.3-2.2,3.3c-1,0.9-2.2,1.6-3.7,2.2c-1.5,0.5-3.2,0.8-5.2,0.8H312.1z"/>
		<path class="st0" d="M410.1,322.4l-5.7-8.8h-18.1l3.2-5h11.8l-8.5-13.2l-17.4,27h-7.6l22-33.7c0.4-0.6,0.8-1.1,1.4-1.5
			c0.5-0.4,1.2-0.5,1.9-0.5c0.7,0,1.4,0.2,1.9,0.5c0.5,0.4,1,0.8,1.3,1.5l22.1,33.7H410.1z"/>
		<path class="st0" d="M455.9,322.4l-9.7-9.8h-14.3v-5.4h16c2.4,0,4.3-0.6,5.5-1.8c1.2-1.2,1.8-3,1.8-5.2c0-2.3-0.6-4-1.9-5.1
			s-3.1-1.7-5.4-1.7H427v29h-6.6v-35.2h27.5c2.2,0,4.1,0.3,5.9,0.9c1.7,0.6,3.2,1.5,4.4,2.6c1.2,1.1,2.1,2.5,2.7,4
			c0.6,1.6,0.9,3.4,0.9,5.3c0,2.9-0.7,5.4-2.1,7.4c-1.4,2-3.3,3.4-5.8,4.3l11.5,10.7H455.9z"/>
		<path class="st0" d="M484.5,322.4c-2.7,0-5.1-0.5-7.4-1.4c-2.3-0.9-4.2-2.2-5.9-3.8c-1.7-1.6-3-3.5-3.9-5.7
			c-0.9-2.2-1.4-4.6-1.4-7.1c0-2.6,0.5-4.9,1.4-7.1c0.9-2.1,2.2-3.9,3.9-5.4c1.7-1.5,3.6-2.7,5.9-3.5c2.3-0.8,4.7-1.2,7.4-1.2h20.8
			v6.1h-20.8c-1.7,0-3.3,0.3-4.8,0.8c-1.5,0.6-2.7,1.3-3.8,2.3c-1.1,1-1.9,2.2-2.5,3.6c-0.6,1.4-0.9,2.9-0.9,4.6
			c0,1.6,0.3,3.2,0.9,4.6c0.6,1.4,1.4,2.6,2.5,3.7c1.1,1,2.3,1.8,3.8,2.4c1.5,0.6,3,0.9,4.8,0.9h16.4v-9.1h-17.3v-5.2h24v20.5H484.5
			z"/>
		<path class="st0" d="M511.8,322.4v-35.2h34.2v6.1h-27.6v22.9h27.6v6.1H511.8z M523.4,307.1v-5.2h21.3v5.2H523.4z"/>
		<path class="st0" d="M556.1,296.7v25.7h-6.4v-31.9c0-1.1,0.3-2,0.9-2.7c0.6-0.7,1.4-1,2.5-1c0.5,0,1,0.1,1.4,0.3
			c0.5,0.2,0.9,0.5,1.4,1l27.1,24.6v-25.7h6.4v32.2c0,1.2-0.3,2.1-0.9,2.7s-1.4,1-2.4,1c-1.1,0-2.1-0.4-3.1-1.3L556.1,296.7z"/>
		<path class="st0" d="M606.3,322.4v-29h-14.6v-6.1h35.8v6.1H613v29H606.3z"/>
		<path class="st0" d="M630.4,322.4v-35.2h6.7v35.2H630.4z"/>
		<path class="st0" d="M648.4,296.7v25.7H642v-31.9c0-1.1,0.3-2,0.9-2.7c0.6-0.7,1.5-1,2.5-1c0.5,0,1,0.1,1.4,0.3
			c0.5,0.2,0.9,0.5,1.4,1l27.1,24.6v-25.7h6.4v32.2c0,1.2-0.3,2.1-0.9,2.7c-0.6,0.6-1.4,1-2.4,1c-1.1,0-2.1-0.4-3.1-1.3L648.4,296.7
			z"/>
		<path class="st0" d="M703.7,322.4c-2.7,0-5.1-0.5-7.4-1.4c-2.3-0.9-4.2-2.2-5.9-3.8c-1.7-1.6-3-3.5-3.9-5.7
			c-0.9-2.2-1.4-4.6-1.4-7.1c0-2.6,0.5-4.9,1.4-7.1c0.9-2.1,2.2-3.9,3.9-5.4c1.7-1.5,3.6-2.7,5.9-3.5c2.3-0.8,4.7-1.2,7.4-1.2h9.3
			c2.8,0,5.3,0.4,7.6,1.3c2.3,0.8,4.3,2,5.9,3.5c1.7,1.5,2.9,3.3,3.8,5.4c0.9,2.1,1.4,4.4,1.4,7c0,2.5-0.5,4.9-1.4,7.1
			c-0.9,2.2-2.2,4.1-3.9,5.7c-1.7,1.6-3.6,2.9-5.9,3.8c-2.3,0.9-4.8,1.4-7.5,1.4H703.7z M713.1,316.2c1.8,0,3.4-0.3,4.9-0.9
			c1.5-0.6,2.8-1.4,3.8-2.4c1.1-1,1.9-2.2,2.5-3.7c0.6-1.4,0.9-3,0.9-4.6c0-1.6-0.3-3.2-0.9-4.6c-0.6-1.4-1.4-2.6-2.5-3.6
			c-1.1-1-2.3-1.8-3.8-2.3c-1.5-0.6-3.1-0.8-4.9-0.8h-9.3c-1.7,0-3.3,0.3-4.8,0.8c-1.5,0.6-2.7,1.3-3.8,2.3c-1.1,1-1.9,2.2-2.5,3.6
			c-0.6,1.4-0.9,2.9-0.9,4.6c0,1.6,0.3,3.2,0.9,4.6c0.6,1.4,1.4,2.6,2.5,3.7s2.3,1.8,3.8,2.4c1.5,0.6,3.1,0.9,4.8,0.9H713.1z"/>
		<path class="st0" d="M735.3,322.4v-6.1h28.7c1.8,0,3.2-0.4,4.1-1.3c1-0.8,1.5-2,1.5-3.3c0-1.5-0.5-2.7-1.5-3.4
			c-1-0.8-2.3-1.1-4.1-1.1h-17.6c-1.8,0-3.4-0.3-4.9-0.8c-1.5-0.5-2.7-1.2-3.7-2.1s-1.8-1.9-2.3-3.2c-0.5-1.2-0.8-2.6-0.8-4
			c0-1.4,0.3-2.7,0.8-3.9c0.5-1.2,1.3-2.2,2.3-3.1c1-0.9,2.2-1.6,3.7-2.1c1.5-0.5,3.2-0.7,5.1-0.7h27.5v6.1h-27.5
			c-1.5,0-2.7,0.4-3.6,1.1c-0.8,0.8-1.3,1.8-1.3,3.2c0,1.4,0.4,2.4,1.3,3.1c0.9,0.7,2,1.1,3.5,1.1h17.6c3.9,0,6.9,0.8,8.9,2.5
			c2,1.7,3,4.2,3,7.6c0,1.5-0.2,2.9-0.7,4.1c-0.5,1.3-1.2,2.3-2.2,3.3c-1,0.9-2.2,1.6-3.7,2.2c-1.5,0.5-3.2,0.8-5.2,0.8H735.3z"/>
		<path class="st0" d="M793.3,322.4v-35.2h34.2v6.1H800v22.9h27.6v6.1H793.3z M804.9,307.1v-5.2h21.3v5.2H804.9z"/>
		<path class="st0" d="M837.6,296.7v25.7h-6.4v-31.9c0-1.1,0.3-2,0.9-2.7c0.6-0.7,1.4-1,2.5-1c0.5,0,1,0.1,1.4,0.3
			c0.5,0.2,0.9,0.5,1.4,1l27.1,24.6v-25.7h6.4v32.2c0,1.2-0.3,2.1-0.9,2.7c-0.6,0.6-1.4,1-2.4,1c-1.1,0-2.1-0.4-3.1-1.3L837.6,296.7
			z"/>
		<path class="st0" d="M924.6,322.4l-9.7-9.8h-14.3v-5.4h16c2.4,0,4.3-0.6,5.5-1.8c1.2-1.2,1.8-3,1.8-5.2c0-2.3-0.6-4-1.9-5.1
			s-3.1-1.7-5.4-1.7h-20.9v29H889v-35.2h27.5c2.2,0,4.1,0.3,5.9,0.9c1.7,0.6,3.2,1.5,4.4,2.6s2.1,2.5,2.7,4c0.6,1.6,0.9,3.4,0.9,5.3
			c0,2.9-0.7,5.4-2.1,7.4c-1.4,2-3.3,3.4-5.8,4.3l11.6,10.7H924.6z"/>
		<path class="st0" d="M935.7,322.4v-35.2h34.2v6.1h-27.6v22.9h27.6v6.1H935.7z M947.2,307.1v-5.2h21.3v5.2H947.2z"/>
		<path class="st0" d="M973.7,322.4v-35.2h22.2c2.7,0,5.2,0.4,7.5,1.3c2.3,0.8,4.3,2,5.9,3.5c1.7,1.5,2.9,3.3,3.9,5.4
			c0.9,2.1,1.4,4.4,1.4,7c0,2.5-0.5,4.9-1.4,7.1c-0.9,2.2-2.2,4.1-3.9,5.7c-1.7,1.6-3.6,2.9-5.9,3.8c-2.3,0.9-4.8,1.4-7.5,1.4H973.7
			z M995.9,316.2c1.7,0,3.3-0.3,4.8-0.9c1.5-0.6,2.7-1.4,3.8-2.4c1.1-1,1.9-2.2,2.5-3.7c0.6-1.4,0.9-3,0.9-4.6
			c0-1.6-0.3-3.2-0.9-4.6c-0.6-1.4-1.4-2.6-2.5-3.6c-1.1-1-2.3-1.8-3.8-2.3c-1.5-0.6-3.1-0.8-4.8-0.8h-15.6v22.9H995.9z"/>
	</g>
	<g>
		<path class="st1" d="M161.6,74.1c-13.2,0.2,10.6,6.5,21.7,14c31.7,21.4,42.7,62.7,26.1,97.8c-0.3,0.7-7.2,12.6-5.6,12.5
			c5.7-0.4,19.7-23.6,21.9-29.2c6-14.9,6.2-31.5,1-46.6C217.2,94.7,192,73.8,161.6,74.1z"/>
		<path class="st1" d="M181.7,123.1c-6.8-11.3-0.2,12.5-1.1,25.8c-2.5,38.1-32.6,68.5-71.3,71.8c-0.8,0.1-14.5,0.2-13.6,1.5
			c3.2,4.7,30.3,5.1,36.2,4.2c15.9-2.3,30.3-10.5,40.8-22.6C192,181.5,197.4,149.2,181.7,123.1z"/>
		<path class="st1" d="M149.5,165.1c6.4-11.6-10.9,6.1-22.8,12.1c-34.2,17.1-75.6,6.4-98-25.4c-0.5-0.6-7.5-12.4-8.1-11
			c-2.5,5.1,10.9,28.7,14.6,33.4c10,12.5,24.4,20.8,40.1,23.8C104.3,203.5,134.9,191.8,149.5,165.1z"/>
		<path class="st1" d="M97,158.6c13.2-0.4-10.7-6.3-21.9-13.6c-32-20.9-43.6-62.1-27.6-97.4c0.3-0.7,7-12.7,5.4-12.6
			c-5.7,0.5-19.3,23.9-21.4,29.5c-5.8,15-5.7,31.6-0.3,46.7C41.1,138.8,66.6,159.4,97,158.6z"/>
		<path class="st1" d="M76.2,109.9c7,11.2,0-12.5,0.7-25.8c1.9-38.2,31.6-69,70.2-72.9c0.8-0.1,14.5-0.4,13.6-1.7
			c-3.3-4.7-30.4-4.6-36.3-3.6c-15.9,2.6-30.1,11-40.4,23.3C65,51.6,60.1,84.1,76.2,109.9z"/>
		<path class="st1" d="M107.7,67.4c-6.2,11.7,10.8-6.2,22.7-12.4c33.9-17.6,75.5-7.5,98.4,23.9c0.5,0.6,7.6,12.3,8.3,10.9
			c2.4-5.2-11.3-28.6-15.2-33.2c-10.2-12.4-24.7-20.5-40.5-23.2C152.4,28.3,121.9,40.5,107.7,67.4z"/>
	</g>
	<g>
		<path class="st1" d="M74.3,32.5c9,0,16.3-7.3,16.3-16.3c0-9-7.3-16.3-16.3-16.3C65.3,0,58,7.3,58,16.3
			C58,25.2,65.3,32.5,74.3,32.5z"/>
		<path class="st1" d="M16.3,132.3c9,0,16.3-7.3,16.3-16.3c0-9-7.3-16.3-16.3-16.3c-9,0-16.3,7.3-16.3,16.3
			C0,125,7.3,132.3,16.3,132.3z"/>
		<path class="st1" d="M71,229.9c9,0,16.3-7.3,16.3-16.3c0-9-7.3-16.3-16.3-16.3c-9,0-16.3,7.3-16.3,16.3
			C54.8,222.6,62.1,229.9,71,229.9z"/>
		<path class="st1" d="M183.8,232.1c9,0,16.3-7.3,16.3-16.3c0-9-7.3-16.3-16.3-16.3c-9,0-16.3,7.3-16.3,16.3
			C167.6,224.8,174.9,232.1,183.8,232.1z"/>
		<path class="st1" d="M240.6,129.6c9,0,16.3-7.3,16.3-16.3c0-9-7.3-16.3-16.3-16.3c-9,0-16.3,7.3-16.3,16.3
			C224.3,122.3,231.6,129.6,240.6,129.6z"/>
		<path class="st1" d="M189.8,35.4c9,0,16.3-7.3,16.3-16.3c0-9-7.3-16.3-16.3-16.3c-9,0-16.3,7.3-16.3,16.3
			C173.5,28.1,180.8,35.4,189.8,35.4z"/>
	</g>
	<path class="st0" d="M335.9,208l-18.1,0l44.4-168.6c0,0,6.7-15.2,18.6-1.4l61.4,146.2l61.2-145.9c0,0,8.8-14.1,17.2,0.4L565,208.1
		h-18.4L509.1,64.6l-57.6,137.5c0,0-8.5,18.2-20.2,1.4L373.5,64.6L335.9,208z"/>
	<path class="st0" d="M597.3,207.9H576l97.4-168.5c0,0,9.5-16.7,19.5,0c9.9,16.7,97.9,168.6,97.9,168.6h-23.5l-26.8-46.7h-77.7
		l7.9-14.1h61.8l-50.4-87.9L597.3,207.9z"/>
	<path class="st0" d="M829.1,208h-18.7l0-173.5h127.4c0,0,57.1,0.8,52.7,64.1c-3.4,51.7-41.4,56.8-41.4,56.8l51.1,52.7h-27.1
		l-45.5-51.8l-63.4,0.2v-16.6l71.8,0.2c0,0,35.5,1.8,36.7-41.1c1.2-42.9-35.1-44.3-35.1-44.3H829.1L829.1,208z"/>
</g>
</svg>
