<?xml version="1.0" encoding="utf-8"?>
<!-- Generator: Adobe Illustrator 21.1.0, SVG Export Plug-In . SVG Version: 6.00 Build 0)  -->
<svg version="1.1" id="Capa_1" xmlns="http://www.w3.org/2000/svg" xmlns:xlink="http://www.w3.org/1999/xlink" x="0px" y="0px"
	 viewBox="0 0 951.1 271.3" style="enable-background:new 0 0 951.1 271.3;" xml:space="preserve">
<style type="text/css">
	.st0{opacity:0.75;fill-rule:evenodd;clip-rule:evenodd;fill:#FFFFFF;}
	.st1{fill-rule:evenodd;clip-rule:evenodd;fill:#FFFFFF;}
	.st2{opacity:0.5;fill-rule:evenodd;clip-rule:evenodd;fill:#FFFFFF;}
	.st3{fill:#FFFFFF;}
</style>
<g>
	<polygon class="st0" points="67.9,202.7 135.7,162.1 67.9,121.6 	"/>
	<polygon class="st1" points="135.7,162.1 67.9,202.7 135.7,243.2 	"/>
	<polygon class="st0" points="67.9,121.6 135.7,81.1 67.9,40.5 	"/>
	<polygon class="st2" points="135.7,81.1 67.9,121.6 135.7,162.1 	"/>
	<polygon class="st2" points="135.7,0 67.9,40.5 135.7,81.1 	"/>
	<polygon class="st1" points="67.9,40.5 0,81.1 67.9,121.6 	"/>
	<polygon class="st0" points="211.1,202.7 143.3,162.1 211.1,121.6 	"/>
	<polygon class="st1" points="143.3,162.1 211.1,202.7 143.3,243.2 	"/>
	<polygon class="st0" points="211.1,121.6 143.3,81.1 211.1,40.5 	"/>
	<polygon class="st2" points="143.3,81.1 211.1,121.6 143.3,162.1 	"/>
	<polygon class="st2" points="143.3,0 211.1,40.5 143.3,81.1 	"/>
	<polygon class="st1" points="211.1,40.5 279,81.1 211.1,121.6 	"/>
	<g>
		<path class="st3" d="M303.4,177.7c1.6,0,3,0.6,4.2,1.7c1.2,1.2,1.7,2.6,1.7,4.2c0,1.6-0.6,3-1.7,4.2c-7.7,6.7-16.7,10-27.1,10
			c-11.5,0-21.3-4.1-29.4-12.2c-8.1-8.1-12.2-17.9-12.2-29.4c0-11.5,4.1-21.3,12.2-29.4c8.1-8.1,17.9-12.2,29.4-12.2
			c11.5,0,21.3,4.1,29.4,12.2c8.1,8.1,12.2,17.9,12.2,29.4c0,1.6-0.6,3-1.7,4.2c-1.2,1.2-2.6,1.7-4.2,1.7h-64.8
			c1.1,5.7,3.8,10.7,8.2,15.1c5.8,5.8,12.8,8.7,21,8.7c7.4,0,13.8-2.3,19.1-7C300.8,178.1,302,177.7,303.4,177.7z M309.7,150.4
			c-1.1-5.7-3.8-10.7-8.2-15.1c-5.8-5.8-12.8-8.7-21-8.7c-8.2,0-15.2,2.9-21,8.7c-4.4,4.4-7.1,9.4-8.2,15.1H309.7z"/>
		<path class="st3" d="M334,85.1c0-1.6,0.6-3,1.7-4.2c1.2-1.2,2.6-1.7,4.2-1.7c1.6,0,3,0.6,4.2,1.7c1.2,1.2,1.7,2.6,1.7,4.2V186h5.9
			c1.6,0,3,0.6,4.2,1.7c1.2,1.2,1.7,2.6,1.7,4.2c0,1.6-0.6,3-1.7,4.2c-1.2,1.2-2.6,1.7-4.2,1.7h-11.9c-1.6,0-3-0.6-4.2-1.7
			c-1.2-1.2-1.7-2.6-1.7-4.2V85.1z"/>
		<path class="st3" d="M434,177.7c1.6,0,3,0.6,4.2,1.7c1.2,1.2,1.7,2.6,1.7,4.2c0,1.6-0.6,3-1.7,4.2c-7.7,6.7-16.7,10-27.1,10
			c-11.5,0-21.3-4.1-29.4-12.2c-8.1-8.1-12.2-17.9-12.2-29.4c0-11.5,4.1-21.3,12.2-29.4c8.1-8.1,17.9-12.2,29.4-12.2
			c11.5,0,21.3,4.1,29.4,12.2c8.1,8.1,12.2,17.9,12.2,29.4c0,1.6-0.6,3-1.7,4.2c-1.2,1.2-2.6,1.7-4.2,1.7H382
			c1.1,5.7,3.8,10.7,8.2,15.1c5.8,5.8,12.8,8.7,21,8.7c7.4,0,13.8-2.3,19.1-7C431.3,178.1,432.6,177.7,434,177.7z M440.3,150.4
			c-1.1-5.7-3.8-10.7-8.2-15.1c-5.8-5.8-12.8-8.7-21-8.7c-8.2,0-15.2,2.9-21,8.7c-4.4,4.4-7.1,9.4-8.2,15.1H440.3z"/>
		<path class="st3" d="M507.3,196.2c-1.1,1.1-2.5,1.6-4.2,1.6c-1.7,0-3.1-0.6-4.2-1.7c-0.3-0.3-0.7-0.8-1-1.4L465,123
			c-0.3-0.7-0.4-1.5-0.4-2.3c0-1.6,0.6-3,1.7-4.2c1.2-1.2,2.6-1.7,4.2-1.7c1.6,0,3,0.6,4.2,1.7c0.4,0.4,0.8,0.9,1.1,1.6l27.3,59.6
			l27.3-59.6c0.3-0.6,0.7-1.2,1.2-1.6c1.1-1.1,2.5-1.7,4.2-1.7c1.6,0,3,0.6,4.2,1.7c1.2,1.2,1.7,2.6,1.7,4.2c0,0.8-0.1,1.6-0.4,2.3
			l-32.9,71.7C508,195.4,507.7,195.9,507.3,196.2z"/>
		<path class="st3" d="M617.9,177.7c1.6,0,3,0.6,4.2,1.7c1.2,1.2,1.7,2.6,1.7,4.2c0,1.6-0.6,3-1.7,4.2c-7.7,6.7-16.7,10-27.1,10
			c-11.5,0-21.3-4.1-29.4-12.2c-8.1-8.1-12.2-17.9-12.2-29.4c0-11.5,4.1-21.3,12.2-29.4c8.1-8.1,17.9-12.2,29.4-12.2
			c11.5,0,21.3,4.1,29.4,12.2c8.1,8.1,12.2,17.9,12.2,29.4c0,1.6-0.6,3-1.7,4.2c-1.2,1.2-2.6,1.7-4.2,1.7h-64.8
			c1.1,5.7,3.8,10.7,8.2,15.1c5.8,5.8,12.8,8.7,21,8.7c7.4,0,13.8-2.3,19.1-7C615.3,178.1,616.5,177.7,617.9,177.7z M624.2,150.4
			c-1.1-5.7-3.8-10.7-8.2-15.1c-5.8-5.8-12.8-8.7-21-8.7c-8.2,0-15.2,2.9-21,8.7c-4.4,4.4-7.1,9.4-8.2,15.1H624.2z"/>
		<path class="st3" d="M648.5,120.7c0-1.6,0.6-3,1.7-4.2c1.2-1.2,2.6-1.7,4.2-1.7c1.6,0,3,0.6,4.2,1.7c1.2,1.2,1.7,2.6,1.7,4.2v4.8
			c7.4-7.2,16.3-10.8,26.7-10.8c10.6,0,19.7,3.8,27.3,11.3c7.5,7.5,11.3,16.6,11.3,27.3v38.6c0,1.6-0.6,3-1.7,4.2
			c-1.2,1.2-2.6,1.7-4.2,1.7c-1.6,0-3-0.6-4.2-1.7c-1.2-1.2-1.7-2.6-1.7-4.2v-38.6c0-7.4-2.6-13.7-7.8-18.9
			c-5.2-5.2-11.5-7.8-18.9-7.8c-7.4,0-13.7,2.6-18.9,7.8c-5.2,5.2-7.8,11.5-7.8,18.9v38.6c0,1.6-0.6,3-1.7,4.2
			c-1.2,1.2-2.6,1.7-4.2,1.7c-1.6,0-3-0.6-4.2-1.7c-1.2-1.2-1.7-2.6-1.7-4.2V120.7z"/>
		<path class="st3" d="M749.4,191.9c0,1.6-0.6,3-1.7,4.2c-1.2,1.2-2.6,1.7-4.2,1.7c-1.6,0-3-0.6-4.2-1.7c-1.2-1.2-1.7-2.6-1.7-4.2
			v-71.2c0-1.6,0.6-3,1.7-4.2c1.2-1.2,2.6-1.7,4.2-1.7c1.6,0,3,0.6,4.2,1.7c1.2,1.2,1.7,2.6,1.7,4.2v1.6c5.9-5,12.8-7.5,20.8-7.5
			c9,0,16.7,3.2,23.1,9.6c1.3,1.3,2.5,2.7,3.6,4.2c1.1-1.5,2.3-2.9,3.6-4.2c6.4-6.4,14.1-9.6,23.1-9.6c9,0,16.7,3.2,23.1,9.6
			c6.4,6.4,9.6,14.1,9.6,23.1v44.5c0,1.6-0.6,3-1.7,4.2c-1.2,1.2-2.6,1.7-4.2,1.7c-1.6,0-3-0.6-4.2-1.7c-1.2-1.2-1.7-2.6-1.7-4.2
			v-44.5c0-5.7-2-10.6-6.1-14.7c-4.1-4.1-9-6.1-14.7-6.1c-5.7,0-10.6,2-14.7,6.1c-4.1,4.1-6.1,9-6.1,14.7v44.5c0,1.6-0.6,3-1.7,4.2
			c-1.2,1.2-2.6,1.7-4.2,1.7c-1.6,0-3-0.6-4.2-1.7c-1.2-1.2-1.7-2.6-1.7-4.2v-44.5c0-5.7-2-10.6-6.1-14.7c-4.1-4.1-9-6.1-14.7-6.1
			c-5.7,0-10.6,2-14.7,6.1c-4.1,4.1-6.1,9-6.1,14.7V191.9z"/>
		<path class="st3" d="M932.4,177.7c1.6,0,3,0.6,4.2,1.7c1.2,1.2,1.7,2.6,1.7,4.2c0,1.6-0.6,3-1.7,4.2c-7.7,6.7-16.7,10-27.1,10
			c-11.5,0-21.3-4.1-29.4-12.2c-8.1-8.1-12.2-17.9-12.2-29.4c0-11.5,4.1-21.3,12.2-29.4c8.1-8.1,17.9-12.2,29.4-12.2
			c11.5,0,21.3,4.1,29.4,12.2c8.1,8.1,12.2,17.9,12.2,29.4c0,1.6-0.6,3-1.7,4.2c-1.2,1.2-2.6,1.7-4.2,1.7h-64.8
			c1.1,5.7,3.8,10.7,8.2,15.1c5.8,5.8,12.8,8.7,21,8.7c7.4,0,13.8-2.3,19.1-7C929.8,178.1,931,177.7,932.4,177.7z M938.7,150.4
			c-1.1-5.7-3.8-10.7-8.2-15.1c-5.8-5.8-12.8-8.7-21-8.7c-8.2,0-15.2,2.9-21,8.7c-4.4,4.4-7.1,9.4-8.2,15.1H938.7z"/>
	</g>
	<g>
		<path class="st3" d="M279,268.9c0,0.7-0.2,1.2-0.7,1.7c-0.5,0.5-1,0.7-1.7,0.7c-0.7,0-1.2-0.2-1.7-0.7c-0.5-0.5-0.7-1-0.7-1.7v-2
			c-3,2.9-6.7,4.4-10.9,4.4c-4.3,0-8-1.5-11.1-4.6c-3.1-3.1-4.6-6.8-4.6-11.1v-15.7c0-0.7,0.2-1.2,0.7-1.7c0.5-0.5,1-0.7,1.7-0.7
			c0.7,0,1.2,0.2,1.7,0.7c0.5,0.5,0.7,1,0.7,1.7v15.7c0,3,1.1,5.6,3.2,7.7c2.1,2.1,4.7,3.2,7.7,3.2c3,0,5.6-1.1,7.7-3.2
			c2.1-2.1,3.2-4.7,3.2-7.7v-15.7c0-0.7,0.2-1.2,0.7-1.7c0.5-0.5,1-0.7,1.7-0.7c0.7,0,1.2,0.2,1.7,0.7c0.5,0.5,0.7,1,0.7,1.7V268.9z
			"/>
		<path class="st3" d="M283.8,239.8c0-0.7,0.2-1.2,0.7-1.7c0.5-0.5,1-0.7,1.7-0.7c0.7,0,1.2,0.2,1.7,0.7c0.5,0.5,0.7,1,0.7,1.7v2
			c3-2.9,6.7-4.4,10.9-4.4c4.3,0,8,1.5,11.1,4.6c3.1,3.1,4.6,6.8,4.6,11.1v15.7c0,0.7-0.2,1.2-0.7,1.7c-0.5,0.5-1,0.7-1.7,0.7
			c-0.7,0-1.2-0.2-1.7-0.7c-0.5-0.5-0.7-1-0.7-1.7v-15.7c0-3-1.1-5.6-3.2-7.7c-2.1-2.1-4.7-3.2-7.7-3.2c-3,0-5.6,1.1-7.7,3.2
			c-2.1,2.1-3.2,4.7-3.2,7.7v15.7c0,0.7-0.2,1.2-0.7,1.7c-0.5,0.5-1,0.7-1.7,0.7c-0.7,0-1.2-0.2-1.7-0.7c-0.5-0.5-0.7-1-0.7-1.7
			V239.8z"/>
		<path class="st3" d="M354,254.4c0,4.7-1.7,8.7-5,12c-3.3,3.3-7.3,5-12,5c-4.7,0-8.7-1.7-12-5c-3.3-3.3-5-7.3-5-12
			c0-4.7,1.7-8.7,5-12c3.3-3.3,7.3-5,12-5c4.7,0,8.7,1.7,12,5C352.4,245.7,354,249.7,354,254.4z M337.1,242.3
			c-3.3,0-6.2,1.2-8.6,3.5c-2.4,2.4-3.5,5.2-3.5,8.6c0,3.3,1.2,6.2,3.5,8.6c2.4,2.4,5.2,3.5,8.6,3.5c3.3,0,6.2-1.2,8.6-3.5
			c2.4-2.4,3.5-5.2,3.5-8.6c0-3.3-1.2-6.2-3.5-8.6C343.3,243.4,340.4,242.3,337.1,242.3z"/>
		<path class="st3" d="M377,225.3c0-0.7,0.2-1.2,0.7-1.7c0.5-0.5,1-0.7,1.7-0.7c0.7,0,1.2,0.2,1.7,0.7c0.5,0.5,0.7,1,0.7,1.7v41.2
			h2.4c0.7,0,1.2,0.2,1.7,0.7c0.5,0.5,0.7,1,0.7,1.7c0,0.7-0.2,1.2-0.7,1.7c-0.5,0.5-1,0.7-1.7,0.7h-4.8c-0.7,0-1.2-0.2-1.7-0.7
			c-0.5-0.5-0.7-1-0.7-1.7V225.3z"/>
		<path class="st3" d="M425.4,254.4c0,4.7-1.7,8.7-5,12c-3.3,3.3-7.3,5-12,5c-4.7,0-8.7-1.7-12-5c-3.3-3.3-5-7.3-5-12
			c0-4.7,1.7-8.7,5-12c3.3-3.3,7.3-5,12-5c4.7,0,8.7,1.7,12,5C423.8,245.7,425.4,249.7,425.4,254.4z M408.5,242.3
			c-3.3,0-6.2,1.2-8.6,3.5c-2.4,2.4-3.5,5.2-3.5,8.6c0,3.3,1.2,6.2,3.5,8.6c2.4,2.4,5.2,3.5,8.6,3.5c3.3,0,6.2-1.2,8.6-3.5
			c2.4-2.4,3.5-5.2,3.5-8.6c0-3.3-1.2-6.2-3.5-8.6C414.7,243.4,411.8,242.3,408.5,242.3z"/>
		<path class="st3" d="M474.8,263c0.7,0,1.2,0.2,1.7,0.7c0.5,0.5,0.7,1,0.7,1.7c0,0.7-0.3,1.3-0.8,1.8c-3.1,2.7-6.8,4.1-11,4.1
			c-4.7,0-8.7-1.7-12-5c-3.3-3.3-5-7.3-5-12c0-4.7,1.7-8.7,5-12c3.3-3.3,7.3-5,12-5c4.2,0,7.9,1.4,11,4.1c0.6,0.5,0.8,1.1,0.8,1.9
			c0,0.7-0.2,1.2-0.7,1.7c-0.5,0.5-1,0.7-1.7,0.7c-0.6,0-1.1-0.2-1.5-0.5c-2.3-2-4.9-3-7.9-3c-3.3,0-6.2,1.2-8.6,3.5
			c-2.4,2.4-3.5,5.2-3.5,8.6c0,3.3,1.2,6.2,3.5,8.6c2.4,2.4,5.2,3.5,8.6,3.5c3,0,5.7-1,7.9-3C473.7,263.2,474.2,263,474.8,263z"/>
		<path class="st3" d="M482.3,239.8c0-0.7,0.2-1.2,0.7-1.7c0.5-0.5,1-0.7,1.7-0.7c0.7,0,1.2,0.2,1.7,0.7c0.5,0.5,0.7,1,0.7,1.7v2.7
			c3.4-3.4,7.4-5.1,12.1-5.1c2.4,0,4.5,0.4,6.5,1.2c0.4,0.1,0.7,0.4,1,0.6c0.5,0.5,0.7,1.1,0.7,1.7c0,0.7-0.2,1.2-0.7,1.7
			c-0.5,0.5-1,0.7-1.7,0.7c-0.4,0-0.7-0.1-1.1-0.2c-1.4-0.6-3-0.9-4.7-0.9c-3.3,0-6.2,1.2-8.6,3.5c-2.4,2.4-3.5,5.2-3.5,8.6v14.5
			c0,0.7-0.2,1.2-0.7,1.7c-0.5,0.5-1,0.7-1.7,0.7c-0.7,0-1.2-0.2-1.7-0.7c-0.5-0.5-0.7-1-0.7-1.7V239.8z"/>
		<path class="st3" d="M537.7,263.1c0.7,0,1.2,0.2,1.7,0.7c0.5,0.5,0.7,1,0.7,1.7c0,0.7-0.2,1.2-0.7,1.7c-3.1,2.7-6.8,4.1-11,4.1
			c-4.7,0-8.7-1.7-12-5c-3.3-3.3-5-7.3-5-12c0-4.7,1.7-8.7,5-12c3.3-3.3,7.3-5,12-5c4.7,0,8.7,1.7,12,5c3.3,3.3,5,7.3,5,12
			c0,0.7-0.2,1.2-0.7,1.7c-0.5,0.5-1,0.7-1.7,0.7h-26.4c0.4,2.3,1.6,4.4,3.3,6.1c2.4,2.4,5.2,3.5,8.6,3.5c3,0,5.6-1,7.8-2.9
			C536.6,263.3,537.1,263.1,537.7,263.1z M540.2,251.9c-0.4-2.3-1.6-4.4-3.3-6.1c-2.4-2.4-5.2-3.5-8.6-3.5c-3.3,0-6.2,1.2-8.6,3.5
			c-1.8,1.8-2.9,3.8-3.3,6.1H540.2z"/>
		<path class="st3" d="M576.4,263.1c0.7,0,1.2,0.2,1.7,0.7c0.5,0.5,0.7,1,0.7,1.7c0,0.7-0.2,1.2-0.7,1.7c-3.1,2.7-6.8,4.1-11,4.1
			c-4.7,0-8.7-1.7-12-5c-3.3-3.3-5-7.3-5-12c0-4.7,1.7-8.7,5-12c3.3-3.3,7.3-5,12-5s8.7,1.7,12,5c3.3,3.3,5,7.3,5,12
			c0,0.7-0.2,1.2-0.7,1.7c-0.5,0.5-1,0.7-1.7,0.7h-26.4c0.4,2.3,1.6,4.4,3.3,6.1c2.4,2.4,5.2,3.5,8.6,3.5c3,0,5.6-1,7.8-2.9
			C575.3,263.3,575.8,263.1,576.4,263.1z M579,251.9c-0.4-2.3-1.6-4.4-3.3-6.1c-2.4-2.4-5.2-3.5-8.6-3.5c-3.3,0-6.2,1.2-8.6,3.5
			c-1.8,1.8-2.9,3.8-3.3,6.1H579z"/>
		<path class="st3" d="M638.5,268.9c0,0.7-0.2,1.2-0.7,1.7c-0.5,0.5-1,0.7-1.7,0.7c-0.7,0-1.2-0.2-1.7-0.7c-0.5-0.5-0.7-1-0.7-1.7
			v-2c-3,2.9-6.7,4.4-10.9,4.4c-4.3,0-8-1.5-11.1-4.6c-3.1-3.1-4.6-6.8-4.6-11.1v-15.7c0-0.7,0.2-1.2,0.7-1.7c0.5-0.5,1-0.7,1.7-0.7
			c0.7,0,1.2,0.2,1.7,0.7c0.5,0.5,0.7,1,0.7,1.7v15.7c0,3,1.1,5.6,3.2,7.7c2.1,2.1,4.7,3.2,7.7,3.2c3,0,5.6-1.1,7.7-3.2
			c2.1-2.1,3.2-4.7,3.2-7.7v-15.7c0-0.7,0.2-1.2,0.7-1.7c0.5-0.5,1-0.7,1.7-0.7c0.7,0,1.2,0.2,1.7,0.7c0.5,0.5,0.7,1,0.7,1.7V268.9z
			"/>
		<path class="st3" d="M643.3,239.8c0-0.7,0.2-1.2,0.7-1.7c0.5-0.5,1-0.7,1.7-0.7c0.7,0,1.2,0.2,1.7,0.7c0.5,0.5,0.7,1,0.7,1.7v2
			c3-2.9,6.7-4.4,10.9-4.4c4.3,0,8,1.5,11.1,4.6c3.1,3.1,4.6,6.8,4.6,11.1v15.7c0,0.7-0.2,1.2-0.7,1.7c-0.5,0.5-1,0.7-1.7,0.7
			c-0.7,0-1.2-0.2-1.7-0.7c-0.5-0.5-0.7-1-0.7-1.7v-15.7c0-3-1.1-5.6-3.2-7.7s-4.7-3.2-7.7-3.2c-3,0-5.6,1.1-7.7,3.2
			s-3.2,4.7-3.2,7.7v15.7c0,0.7-0.2,1.2-0.7,1.7c-0.5,0.5-1,0.7-1.7,0.7c-0.7,0-1.2-0.2-1.7-0.7c-0.5-0.5-0.7-1-0.7-1.7V239.8z"/>
		<path class="st3" d="M713.6,254.4c0,4.7-1.7,8.7-5,12c-3.3,3.3-7.3,5-12,5c-4.7,0-8.7-1.7-12-5c-3.3-3.3-5-7.3-5-12
			c0-4.7,1.7-8.7,5-12c3.3-3.3,7.3-5,12-5c4.7,0,8.7,1.7,12,5C711.9,245.7,713.6,249.7,713.6,254.4z M696.6,242.3
			c-3.3,0-6.2,1.2-8.6,3.5c-2.4,2.4-3.5,5.2-3.5,8.6c0,3.3,1.2,6.2,3.5,8.6c2.4,2.4,5.2,3.5,8.6,3.5c3.3,0,6.2-1.2,8.6-3.5
			c2.4-2.4,3.5-5.2,3.5-8.6c0-3.3-1.2-6.2-3.5-8.6C702.8,243.4,700,242.3,696.6,242.3z"/>
		<path class="st3" d="M736.6,225.3c0-0.7,0.2-1.2,0.7-1.7c0.5-0.5,1-0.7,1.7-0.7c0.7,0,1.2,0.2,1.7,0.7c0.5,0.5,0.7,1,0.7,1.7v41.2
			h2.4c0.7,0,1.2,0.2,1.7,0.7c0.5,0.5,0.7,1,0.7,1.7c0,0.7-0.2,1.2-0.7,1.7c-0.5,0.5-1,0.7-1.7,0.7H739c-0.7,0-1.2-0.2-1.7-0.7
			c-0.5-0.5-0.7-1-0.7-1.7V225.3z"/>
		<path class="st3" d="M785,254.4c0,4.7-1.7,8.7-5,12c-3.3,3.3-7.3,5-12,5c-4.7,0-8.7-1.7-12-5c-3.3-3.3-5-7.3-5-12
			c0-4.7,1.7-8.7,5-12c3.3-3.3,7.3-5,12-5c4.7,0,8.7,1.7,12,5C783.3,245.7,785,249.7,785,254.4z M768,242.3c-3.3,0-6.2,1.2-8.6,3.5
			c-2.4,2.4-3.5,5.2-3.5,8.6c0,3.3,1.2,6.2,3.5,8.6c2.4,2.4,5.2,3.5,8.6,3.5c3.3,0,6.2-1.2,8.6-3.5c2.4-2.4,3.5-5.2,3.5-8.6
			c0-3.3-1.2-6.2-3.5-8.6C774.2,243.4,771.4,242.3,768,242.3z"/>
		<path class="st3" d="M808,225.3c0-0.7,0.2-1.2,0.7-1.7c0.5-0.5,1-0.7,1.7-0.7c0.7,0,1.2,0.2,1.7,0.7c0.5,0.5,0.7,1,0.7,1.7v16.5
			c3-2.9,6.7-4.4,10.9-4.4c4.3,0,8,1.5,11.1,4.6c3.1,3.1,4.6,6.8,4.6,11.1v15.7c0,0.7-0.2,1.2-0.7,1.7c-0.5,0.5-1,0.7-1.7,0.7
			c-0.7,0-1.2-0.2-1.7-0.7c-0.5-0.5-0.7-1-0.7-1.7v-15.7c0-3-1.1-5.6-3.2-7.7s-4.7-3.2-7.7-3.2c-3,0-5.6,1.1-7.7,3.2
			s-3.2,4.7-3.2,7.7v15.7c0,0.7-0.2,1.2-0.7,1.7c-0.5,0.5-1,0.7-1.7,0.7c-0.7,0-1.2-0.2-1.7-0.7c-0.5-0.5-0.7-1-0.7-1.7V225.3z"/>
		<path class="st3" d="M873.4,266.2c-3.4,3.4-7.4,5.1-12.1,5.1c-4.7,0-8.7-1.7-12-5c-3.3-3.3-5-7.3-5-12c0-4.7,1.7-8.7,5-12
			c3.3-3.3,7.3-5,12-5c4.7,0,8.7,1.7,12,5c3.3,3.3,5,7.3,5,12v14.5c0,0.7-0.2,1.2-0.7,1.7c-0.5,0.5-1,0.7-1.7,0.7
			c-0.7,0-1.2-0.2-1.7-0.7c-0.5-0.5-0.7-1-0.7-1.7V266.2z M861.2,242.3c-3.3,0-6.2,1.2-8.6,3.5c-2.4,2.4-3.5,5.2-3.5,8.6
			c0,3.3,1.2,6.2,3.5,8.6c2.4,2.4,5.2,3.5,8.6,3.5c3.3,0,6.2-1.2,8.6-3.5c2.4-2.4,3.5-5.2,3.5-8.6c0-3.3-1.2-6.2-3.5-8.6
			C867.5,243.4,864.6,242.3,861.2,242.3z"/>
		<path class="st3" d="M909.4,263c0.7,0,1.2,0.2,1.7,0.7c0.5,0.5,0.7,1,0.7,1.7c0,0.7-0.3,1.3-0.8,1.8c-3.1,2.7-6.8,4.1-11,4.1
			c-4.7,0-8.7-1.7-12-5c-3.3-3.3-5-7.3-5-12c0-4.7,1.7-8.7,5-12c3.3-3.3,7.3-5,12-5c4.2,0,7.9,1.4,11,4.1c0.6,0.5,0.8,1.1,0.8,1.9
			c0,0.7-0.2,1.2-0.7,1.7c-0.5,0.5-1,0.7-1.7,0.7c-0.6,0-1.1-0.2-1.5-0.5c-2.3-2-4.9-3-7.9-3c-3.3,0-6.2,1.2-8.6,3.5
			c-2.4,2.4-3.5,5.2-3.5,8.6c0,3.3,1.2,6.2,3.5,8.6c2.4,2.4,5.2,3.5,8.6,3.5c3,0,5.7-1,7.9-3C908.3,263.2,908.8,263,909.4,263z"/>
		<path class="st3" d="M943.2,263.1c0.7,0,1.2,0.2,1.7,0.7c0.5,0.5,0.7,1,0.7,1.7c0,0.7-0.2,1.2-0.7,1.7c-3.1,2.7-6.8,4.1-11,4.1
			c-4.7,0-8.7-1.7-12-5c-3.3-3.3-5-7.3-5-12c0-4.7,1.7-8.7,5-12c3.3-3.3,7.3-5,12-5c4.7,0,8.7,1.7,12,5c3.3,3.3,5,7.3,5,12
			c0,0.7-0.2,1.2-0.7,1.7c-0.5,0.5-1,0.7-1.7,0.7H922c0.4,2.3,1.6,4.4,3.3,6.1c2.4,2.4,5.2,3.5,8.6,3.5c3,0,5.6-1,7.8-2.9
			C942.1,263.3,942.6,263.1,943.2,263.1z M945.8,251.9c-0.4-2.3-1.6-4.4-3.3-6.1c-2.4-2.4-5.2-3.5-8.6-3.5c-3.3,0-6.2,1.2-8.6,3.5
			c-1.8,1.8-2.9,3.8-3.3,6.1H945.8z"/>
	</g>
</g>
</svg>
