<?xml version="1.0" encoding="utf-8"?>
<!-- Generator: Adobe Illustrator 21.1.0, SVG Export Plug-In . SVG Version: 6.00 Build 0)  -->
<svg version="1.1" id="Capa_1" xmlns="http://www.w3.org/2000/svg" xmlns:xlink="http://www.w3.org/1999/xlink" x="0px" y="0px"
	 viewBox="0 0 1000.2 232.2" style="enable-background:new 0 0 1000.2 232.2;" xml:space="preserve">
<style type="text/css">
	.st0{fill:#FFFFFF;}
</style>
<g>
	<g>
		<path class="st0" d="M161.6,74.2c-13.2,0.2,10.6,6.5,21.7,14c31.7,21.4,42.7,62.7,26.1,97.8c-0.3,0.7-7.2,12.6-5.6,12.5
			c5.7-0.4,19.7-23.6,21.9-29.2c6-14.9,6.2-31.5,1-46.6C217.2,94.8,192,73.9,161.6,74.2z"/>
		<path class="st0" d="M181.7,123.2c-6.8-11.3-0.2,12.5-1.1,25.8c-2.5,38.1-32.6,68.5-71.3,71.8c-0.8,0.1-14.5,0.2-13.6,1.5
			c3.2,4.7,30.3,5.1,36.2,4.2c15.9-2.3,30.3-10.5,40.8-22.6C192,181.6,197.4,149.3,181.7,123.2z"/>
		<path class="st0" d="M149.5,165.2c6.4-11.6-10.9,6.1-22.8,12.1c-34.2,17.1-75.6,6.4-98-25.4c-0.5-0.6-7.5-12.4-8.1-11
			c-2.5,5.1,10.9,28.7,14.6,33.4c10,12.5,24.4,20.8,40.1,23.8C104.3,203.6,134.9,191.9,149.5,165.2z"/>
		<path class="st0" d="M97,158.7c13.2-0.4-10.7-6.3-21.9-13.6c-32-20.9-43.6-62.1-27.6-97.4c0.3-0.7,7-12.7,5.4-12.6
			C47.2,35.6,33.6,59,31.5,64.6c-5.8,15-5.7,31.6-0.3,46.7C41.1,138.9,66.6,159.5,97,158.7z"/>
		<path class="st0" d="M76.2,110c7,11.2,0-12.5,0.7-25.8c1.9-38.2,31.6-69,70.2-72.9c0.8-0.1,14.5-0.4,13.6-1.7
			C157.4,4.9,130.3,5,124.4,6C108.5,8.6,94.3,17,84,29.3C65,51.7,60.1,84.2,76.2,110z"/>
		<path class="st0" d="M107.7,67.5c-6.2,11.7,10.8-6.2,22.7-12.4c33.9-17.6,75.5-7.5,98.4,23.9c0.5,0.6,7.6,12.3,8.3,10.9
			c2.4-5.2-11.3-28.6-15.2-33.2c-10.2-12.4-24.7-20.5-40.5-23.2C152.4,28.4,121.9,40.6,107.7,67.5z"/>
	</g>
	<g>
		<path class="st0" d="M74.3,32.6c9,0,16.3-7.3,16.3-16.3S83.3,0,74.3,0C65.3,0.1,58,7.4,58,16.4C58,25.3,65.3,32.6,74.3,32.6z"/>
		<path class="st0" d="M16.3,132.4c9,0,16.3-7.3,16.3-16.3s-7.3-16.3-16.3-16.3S0,107.1,0,116.1S7.3,132.4,16.3,132.4z"/>
		<path class="st0" d="M71,230c9,0,16.3-7.3,16.3-16.3S80,197.4,71,197.4s-16.3,7.3-16.3,16.3C54.8,222.7,62.1,230,71,230z"/>
		<path class="st0" d="M183.8,232.2c9,0,16.3-7.3,16.3-16.3s-7.3-16.3-16.3-16.3s-16.3,7.3-16.3,16.3
			C167.6,224.9,174.9,232.2,183.8,232.2z"/>
		<path class="st0" d="M240.6,129.7c9,0,16.3-7.3,16.3-16.3s-7.3-16.3-16.3-16.3s-16.3,7.3-16.3,16.3
			C224.3,122.4,231.6,129.7,240.6,129.7z"/>
		<path class="st0" d="M189.8,35.5c9,0,16.3-7.3,16.3-16.3s-7.3-16.3-16.3-16.3s-16.3,7.3-16.3,16.3S180.8,35.5,189.8,35.5z"/>
	</g>
	<path class="st0" d="M335.9,208.1h-18.1l44.4-168.6c0,0,6.7-15.2,18.6-1.4l61.4,146.2l61.2-145.9c0,0,8.8-14.1,17.2,0.4L565,208.2
		h-18.4L509.1,64.7l-57.6,137.5c0,0-8.5,18.2-20.2,1.4L373.5,64.7L335.9,208.1z"/>
	<path class="st0" d="M597.3,208H576l97.4-168.5c0,0,9.5-16.7,19.5,0c9.9,16.7,97.9,168.6,97.9,168.6h-23.5l-26.8-46.7h-77.7
		l7.9-14.1h61.8l-50.4-87.9L597.3,208z"/>
	<path class="st0" d="M829.1,208.1h-18.7V34.6h127.4c0,0,57.1,0.8,52.7,64.1c-3.4,51.7-41.4,56.8-41.4,56.8l51.1,52.7h-27.1
		l-45.5-51.8l-63.4,0.2V140l71.8,0.2c0,0,35.5,1.8,36.7-41.1s-35.1-44.3-35.1-44.3H829.1V208.1z"/>
</g>
</svg>
